{"compressionlevel":-1, "height":19, "infinite":false, "layers":[ { "data":
[31, 32, 48, 31, 48, 31, 47, 31, 31, 31, 31, 31, 32, 48, 31, 31, 32, 48, 31, 32, 48, 31, 31, 47, 31, 48, 31, 31, 31, 47, 31, 32, 31, 31, 47, 48, 48, 47, 31, 31, 48, 47, 31, 31, 31, 31, 31, 47, 31, 31, 47, 32, 31, 31, 31, 31, 31, 48, 48, 31, 31, 31, 31, 31, 31, 31, 47, 31, 32, 31, 48, 48, 47, 48, 32, 47, 31, 48, 32, 48, 31, 31, 31, 47, 31, 47, 31, 31, 32, 31, 31, 48, 31, 32, 32, 47, 31, 31, 31, 31, 47, 31, 31, 47, 47, 31, 32, 31, 31, 31, 31, 31, 31, 32, 31, 31, 31, 31, 31, 31, 31, 31, 31, 31, 31, 48, 47, 32, 31, 31, 32, 47, 31, 31, 47, 47, 32, 31, 47, 31, 31, 31, 47, 31, 31, 48, 31, 48, 31, 31, 32, 32, 31, 48, 31, 31, 31, 32, 48, 31, 31, 47, 31, 31, 31, 31, 31, 31, 32, 31, 31, 31, 31, 31, 31, 31, 32, 31, 31, 31, 48, 31, 31, 31, 48, 31, 31, 32, 47, 31, 31, 32, 31, 31, 47, 31, 31, 31, 31, 48, 47, 48, 47, 48, 32, 31, 31, 31, 31, 31, 31, 31, 48, 31, 32, 31, 48, 31, 31, 31, 31, 31, 31, 47, 32, 48, 32, 32, 31, 31, 31, 48, 48, 32, 48, 31, 31, 31, 48, 31, 32, 31, 31, 31, 31, 48, 31, 31, 47, 31, 31, 31, 48, 31, 32, 31, 47, 32, 31, 48, 48, 31, 47, 31, 48, 31, 31, 31, 31, 32, 31, 47, 31, 31, 31, 31, 32, 48, 31, 47, 31, 32, 47, 32, 47, 31, 31, 31, 31, 31, 32, 32, 31, 32, 48, 31, 48, 31, 31, 31, 48, 31, 31, 31, 31, 48, 31, 31, 31, 31, 31, 32, 31, 47, 31, 48, 31, 31, 31, 31, 48, 47, 31, 48, 31, 48, 31, 31, 32, 31, 31, 47, 31, 47, 31, 31, 31, 31, 31, 48, 31, 31, 31, 32, 32, 47, 32, 47, 32, 31, 31, 31, 31, 31, 31, 31, 47, 47, 31, 31, 31]
,"height":19,"id":1,"name":"bg1","opacity":1,"type":"tilelayer","visible":true,"width":19,"x":0,"y":0},{"data":
[25, 0, 0, 25, 0, 10, 0, 25, 89, 0, 0, 10, 0, 0, 11, 11, 0, 0, 89, 0, 0, 0, 0, 0, 0, 0, 10, 0, 0, 0, 9, 0, 13, 0, 0, 0, 0, 0, 10, 0, 0, 0, 0, 10, 0, 89, 89, 0, 0, 16, 0, 0, 15, 10, 14, 0, 13, 0, 0, 13, 89, 15, 89, 10, 0, 12, 0, 0, 0, 11, 0, 0, 0, 0, 0, 0, 89, 0, 0, 0, 9, 0, 12, 0, 26, 0, 26, 26, 0, 0, 9, 0, 10, 0, 0, 0, 12, 0, 0, 13, 0, 14, 14, 0, 0, 9, 0, 0, 10, 0, 12, 10, 25, 0, 0, 0, 12, 16, 10, 0, 12, 0, 13, 14, 89, 0, 0, 0, 0, 0, 0, 0, 0, 14, 0, 0, 0, 14, 0, 0, 15, 0, 0, 15, 26, 0, 12, 0, 89, 10, 0, 0, 9, 0, 14, 13, 25, 0, 0, 14, 13, 0, 14, 10, 0, 16, 15, 9, 0, 89, 0, 0, 12, 10, 12, 89, 0, 16, 25, 11, 0, 11, 89, 26, 0, 0, 89, 0, 0, 26, 0, 0, 9, 13, 0, 0, 25, 0, 25, 0, 0, 0, 0, 0, 0, 26, 89, 9, 9, 12, 0, 11, 0, 0, 0, 0, 0, 25, 0, 9, 13, 10, 14, 0, 0, 0, 0, 0, 0, 10, 13, 0, 0, 0, 0, 25, 25, 25, 0, 11, 0, 0, 12, 0, 0, 0, 15, 16, 0, 0, 0, 0, 0, 0, 0, 16, 0, 0, 0, 0, 0, 0, 0, 89, 0, 10, 10, 16, 0, 0, 0, 0, 11, 26, 14, 10, 0, 0, 0, 0, 25, 0, 0, 0, 0, 14, 10, 11, 14, 15, 0, 0, 13, 0, 0, 0, 0, 14, 9, 26, 0, 10, 15, 89, 13, 0, 0, 9, 89, 16, 16, 0, 13, 0, 26, 0, 0, 0, 26, 0, 0, 0, 16, 0, 0, 0, 16, 0, 0, 14, 25, 0, 0, 0, 9, 14, 11, 0, 0, 0, 13, 0, 13, 0, 0, 0, 0, 0, 0, 12, 0, 9, 16, 0, 16, 10, 0, 0, 15, 15, 16]
,"height":19,"id":2,"name":"obstacles","opacity":1,"type":"tilelayer","visible":true,"width":19,"x":0,"y":0},{"data":
[0, 0, 0, 0, 0, 0, 0, 0, 0, 0, 0, 0, 0, 0, 0, 0, 0, 0, 0, 0, 0, 0, 0, 0, 0, 0, 0, 0, 0, 0, 0, 0, 0, 0, 0, 0, 0, 0, 0, 0, 0, 0, 0, 0, 91, 0, 0, 0, 0, 0, 0, 0, 0, 0, 0, 0, 0, 0, 0, 0, 0, 0, 0, 0, 0, 0, 0, 0, 0, 0, 0, 0, 0, 0, 0, 0, 0, 0, 0, 0, 0, 0, 0, 0, 0, 0, 0, 0, 0, 94, 0, 0, 0, 0, 0, 0, 0, 0, 0, 0, 0, 0, 0, 0, 0, 0, 0, 0, 0, 0, 0, 0, 0, 0, 0, 0, 0, 0, 0, 0, 0, 0, 0, 0, 0, 0, 0, 0, 0, 91, 0, 0, 0, 0, 0, 0, 0, 0, 0, 0, 0, 0, 0, 0, 0, 0, 0, 0, 0, 0, 0, 0, 0, 0, 0, 0, 0, 0, 0, 0, 0, 0, 0, 0, 0, 0, 0, 0, 0, 0, 0, 94, 0, 0, 0, 0, 0, 0, 0, 0, 0, 0, 0, 0, 0, 91, 0, 0, 0, 0, 94, 0, 0, 0, 0, 0, 0, 0, 0, 0, 0, 0, 0, 0, 0, 0, 0, 0, 0, 0, 0, 0, 0, 0, 0, 0, 0, 0, 0, 0, 0, 0, 0, 0, 0, 0, 0, 0, 0, 0, 0, 0, 0, 0, 0, 0, 0, 0, 0, 0, 0, 0, 0, 91, 0, 0, 0, 0, 0, 0, 0, 94, 0, 0, 0, 0, 0, 0, 0, 0, 0, 0, 0, 0, 0, 0, 0, 0, 0, 0, 0, 0, 0, 0, 0, 0, 0, 0, 0, 0, 0, 0, 0, 0, 0, 0, 0, 0, 0, 0, 0, 0, 0, 0, 0, 0, 0, 0, 0, 0, 0, 0, 0, 0, 0, 0, 0, 0, 0, 0, 0, 0, 0, 0, 0, 0, 0, 91, 0, 94, 0, 0, 0, 0, 0, 0, 0, 0, 0, 0, 0, 0, 91, 0, 0, 0, 0, 94, 0, 0, 0, 0, 0, 0, 0, 0, 0, 0, 0, 0, 0, 0, 0, 0, 0, 0, 0, 0, 0, 0, 0]
,"height":19,"id":3,"name":"ramassables","opacity":1,"type":"tilelayer","visible":true,"width":19,"x":0,"y":0},{"data":
[0, 0, 0, 0, 0, 0, 0, 0, 0, 0, 131, 0, 0, 0, 0, 0, 0, 0, 0, 0, 0, 199, 0, 0, 0, 0, 0, 131, 0, 0, 0, 0, 0, 199, 0, 0, 0, 0, 0, 0, 0, 0, 0, 0, 0, 0, 0, 0, 0, 0, 0, 0, 0, 0, 0, 0, 0, 0, 0, 0, 0, 0, 0, 0, 0, 0, 0, 0, 0, 0, 0, 0, 0, 0, 0, 0, 0, 0, 0, 0, 0, 0, 0, 0, 0, 0, 0, 0, 0, 0, 0, 0, 0, 0, 0, 0, 0, 0, 0, 0, 0, 0, 0, 0, 0, 0, 0, 131, 0, 0, 0, 0, 0, 0, 0, 0, 0, 0, 0, 199, 0, 0, 0, 0, 0, 0, 0, 0, 0, 0, 0, 0, 0, 0, 0, 0, 0, 0, 0, 0, 0, 0, 0, 0, 0, 0, 0, 0, 0, 0, 0, 0, 0, 0, 0, 0, 0, 0, 0, 0, 0, 0, 0, 0, 0, 0, 0, 0, 0, 0, 0, 0, 0, 0, 0, 0, 0, 0, 0, 0, 0, 0, 0, 0, 0, 0, 0, 0, 0, 0, 0, 0, 0, 0, 0, 0, 0, 131, 0, 0, 0, 0, 0, 0, 0, 0, 0, 0, 0, 0, 0, 0, 0, 0, 0, 0, 0, 0, 0, 0, 0, 0, 0, 0, 0, 0, 0, 0, 0, 0, 0, 0, 0, 0, 0, 0, 0, 0, 0, 0, 0, 0, 0, 0, 0, 0, 0, 0, 0, 0, 0, 0, 0, 0, 0, 0, 0, 0, 199, 0, 0, 131, 0, 0, 0, 0, 0, 0, 199, 0, 0, 0, 0, 0, 0, 0, 0, 0, 0, 0, 0, 0, 0, 0, 0, 0, 0, 0, 0, 0, 0, 0, 0, 0, 0, 0, 0, 0, 0, 0, 0, 0, 0, 0, 0, 0, 131, 0, 0, 0, 0, 0, 0, 0, 0, 0, 199, 0, 0, 0, 0, 0, 0, 0, 0, 0, 0, 0, 0, 0, 0, 0, 0, 0, 0, 0, 0, 0, 0, 0, 0, 0, 0, 0, 0, 0, 0, 0, 0, 0, 0, 0, 0, 0, 0, 0, 0, 0, 0, 0, 0]
,"height":19,"id":4,"name":"joueur","opacity":1,"type":"tilelayer","visible":true,"width":19,"x":0,"y":0}
],"nextlayerid":5,"nextobjectid":1,"orientation":"orthogonal","renderorder":"right-down","tiledversion":"1.4.1","tileheight":32,"tilesets":[{"columns":16,"firstgid":1,"image":"\/SpriteSheet-32x32\/tiny_complete.bmp","imageheight":832,"imagewidth":512,"margin":0,"name":"tiny_complete","spacing":0,"tilecount":416,"tileheight":32,"tilewidth":32}],"tilewidth":32,"type":"map","version":1.4,"width":19}
