{"compressionlevel":-1, "height":22, "infinite":false, "layers":[ { "data":
[31, 31, 31, 31, 31, 31, 47, 48, 48, 47, 31, 31, 31, 31, 31, 48, 47, 31, 32, 31, 31, 31, 31, 31, 31, 31, 31, 31, 48, 47, 32, 31, 31, 31, 31, 31, 48, 31, 32, 31, 31, 31, 31, 31, 31, 31, 31, 31, 31, 48, 31, 47, 31, 32, 31, 31, 31, 48, 31, 31, 31, 47, 32, 31, 48, 32, 47, 31, 31, 31, 31, 48, 32, 32, 48, 31, 32, 31, 48, 31, 31, 31, 47, 48, 31, 48, 32, 31, 47, 31, 32, 47, 47, 31, 31, 47, 31, 31, 31, 31, 47, 31, 31, 32, 31, 31, 31, 31, 31, 31, 31, 48, 48, 31, 31, 32, 31, 31, 31, 31, 47, 32, 31, 31, 47, 31, 31, 47, 31, 31, 31, 48, 31, 31, 31, 31, 31, 31, 48, 31, 31, 31, 32, 47, 31, 47, 31, 47, 31, 48, 32, 47, 31, 31, 48, 48, 32, 48, 47, 31, 31, 47, 31, 31, 32, 31, 31, 48, 31, 31, 31, 48, 31, 31, 31, 48, 31, 32, 31, 47, 47, 31, 31, 31, 31, 31, 48, 31, 32, 32, 31, 47, 47, 31, 48, 31, 31, 32, 31, 31, 31, 31, 31, 31, 31, 47, 48, 32, 31, 31, 31, 31, 31, 31, 31, 47, 47, 48, 31, 32, 31, 32, 48, 31, 31, 31, 31, 47, 32, 31, 32, 31, 31, 31, 31, 47, 31, 31, 31, 31, 31, 31, 31, 32, 31, 31, 31, 48, 48, 31, 31, 31, 31, 31, 31, 48, 31, 48, 31, 31, 47, 32, 31, 31, 47, 31, 32, 31, 31, 31, 31, 31, 31, 31, 31, 31, 31, 31, 32, 31, 32, 31, 47, 31, 31, 47, 31, 31, 32, 31, 31, 48, 48, 31, 32, 48, 47, 31, 31, 31, 31, 31, 47, 47, 32, 32, 47, 31, 31, 31, 32, 31, 31, 31, 31, 31, 31, 47, 32, 47, 32, 48, 31, 31, 31, 48, 31, 48, 31, 31, 31, 47, 31, 31, 47, 31, 31, 48, 31, 31, 47, 31, 31, 31, 31, 31, 31, 31, 31, 48, 31, 31, 31, 31, 31, 48, 47, 31, 48, 31, 47, 48, 47, 47, 31, 48, 31, 31, 48, 31, 31, 31, 47, 31, 31, 31, 31, 32, 31, 32, 31, 31, 31, 31, 48, 31, 31, 48, 47, 31, 31, 31, 31, 48, 31, 31, 47, 47, 31, 31, 31, 31, 47, 31, 48, 48, 31, 32, 31, 32, 31, 48, 32, 31, 31, 31, 48, 32, 31, 31, 47, 31, 31, 31, 31, 32, 47, 31, 32, 32, 31, 31, 31, 31, 31, 31, 31, 31, 31, 31, 47, 31, 31, 32, 31, 48, 31, 31, 31, 32, 31, 48, 31, 32, 32, 31, 31, 31, 31, 48, 47, 31, 47, 47, 31, 31, 47, 31, 31, 31, 31, 31, 31, 31, 31, 47, 31, 31, 31, 31, 31, 31, 31, 31]
,"height":22,"id":1,"name":"bg1","opacity":1,"type":"tilelayer","visible":true,"width":22,"x":0,"y":0},{"data":
[0, 25, 12, 25, 0, 26, 0, 0, 0, 0, 15, 11, 0, 26, 0, 0, 0, 16, 0, 0, 13, 26, 0, 10, 26, 26, 16, 0, 0, 0, 0, 11, 10, 89, 89, 14, 0, 10, 0, 9, 13, 0, 0, 11, 15, 0, 0, 16, 11, 0, 9, 0, 13, 0, 26, 0, 10, 0, 12, 10, 13, 0, 0, 0, 0, 0, 0, 0, 0, 25, 10, 0, 0, 0, 0, 12, 0, 0, 0, 16, 26, 0, 0, 0, 12, 0, 0, 11, 0, 0, 0, 0, 0, 13, 16, 0, 0, 0, 0, 0, 0, 26, 0, 0, 16, 25, 0, 10, 13, 16, 16, 0, 0, 10, 9, 0, 9, 9, 26, 89, 0, 0, 12, 9, 0, 14, 16, 0, 0, 26, 9, 0, 26, 16, 0, 10, 12, 25, 0, 12, 0, 11, 0, 0, 13, 0, 26, 0, 12, 0, 0, 0, 0, 0, 0, 0, 0, 0, 0, 11, 9, 0, 0, 10, 0, 12, 12, 0, 14, 0, 26, 0, 0, 16, 9, 0, 26, 0, 11, 0, 0, 12, 26, 0, 9, 13, 0, 14, 0, 0, 0, 0, 0, 11, 0, 16, 14, 0, 25, 0, 16, 10, 26, 16, 11, 0, 0, 0, 10, 0, 14, 10, 26, 9, 89, 0, 0, 0, 10, 0, 9, 0, 0, 0, 0, 14, 12, 0, 0, 26, 0, 0, 14, 11, 10, 0, 14, 13, 16, 13, 9, 0, 26, 0, 89, 16, 10, 0, 0, 0, 12, 10, 15, 14, 12, 0, 9, 0, 0, 0, 0, 0, 89, 25, 0, 0, 0, 0, 16, 9, 13, 0, 89, 9, 0, 89, 0, 10, 0, 0, 0, 10, 0, 9, 15, 0, 13, 9, 0, 25, 14, 0, 0, 89, 0, 0, 0, 89, 10, 0, 12, 13, 0, 0, 0, 0, 0, 0, 26, 0, 0, 0, 10, 14, 14, 13, 26, 0, 0, 0, 0, 0, 0, 26, 9, 0, 15, 0, 11, 9, 15, 0, 9, 13, 0, 13, 0, 0, 89, 25, 0, 0, 12, 25, 12, 10, 9, 9, 9, 0, 10, 0, 13, 0, 0, 0, 0, 15, 0, 0, 0, 0, 0, 0, 9, 0, 10, 10, 0, 12, 13, 15, 0, 15, 0, 10, 13, 0, 89, 0, 0, 0, 14, 10, 0, 14, 14, 0, 0, 14, 9, 13, 0, 0, 25, 0, 0, 0, 26, 0, 0, 11, 0, 0, 0, 0, 15, 0, 0, 0, 0, 0, 0, 13, 26, 11, 0, 0, 16, 0, 0, 9, 13, 13, 13, 0, 0, 0, 0, 0, 0, 10, 14, 0, 0, 26, 0, 12, 26, 12, 0, 16, 0, 0, 9, 0, 13, 10, 25, 0, 13, 0, 0, 0, 0, 9, 14, 25, 10, 0, 0, 10, 0, 0, 0, 11, 0, 14, 12, 9, 25, 15, 16, 25, 11, 0, 89, 11, 0, 0, 0, 10, 0, 12]
,"height":22,"id":2,"name":"obstacles","opacity":1,"type":"tilelayer","visible":true,"width":22,"x":0,"y":0},{"data":
[0, 0, 0, 0, 0, 0, 0, 0, 0, 0, 0, 0, 0, 0, 0, 0, 0, 0, 0, 0, 0, 0, 0, 0, 0, 0, 0, 0, 0, 0, 0, 0, 0, 0, 0, 0, 0, 0, 0, 0, 0, 0, 0, 0, 0, 0, 0, 0, 0, 0, 0, 0, 0, 0, 0, 0, 0, 0, 0, 0, 0, 0, 0, 0, 0, 0, 0, 0, 0, 0, 0, 0, 0, 0, 0, 0, 0, 0, 0, 0, 0, 0, 0, 0, 0, 0, 0, 0, 0, 0, 0, 0, 0, 0, 0, 0, 0, 0, 0, 0, 0, 0, 0, 0, 0, 0, 0, 0, 0, 0, 0, 0, 0, 0, 0, 0, 0, 0, 0, 0, 0, 0, 0, 0, 0, 0, 0, 0, 0, 0, 0, 0, 0, 0, 0, 0, 0, 0, 0, 0, 0, 0, 0, 0, 0, 0, 0, 0, 0, 0, 0, 0, 0, 0, 0, 0, 0, 0, 0, 0, 0, 0, 0, 0, 0, 0, 0, 0, 0, 0, 0, 0, 0, 0, 0, 0, 0, 0, 0, 0, 0, 0, 0, 0, 0, 0, 0, 0, 0, 0, 0, 0, 0, 0, 0, 0, 0, 0, 0, 0, 0, 0, 0, 0, 0, 0, 0, 0, 0, 0, 0, 0, 0, 0, 0, 0, 0, 0, 0, 0, 0, 0, 0, 0, 0, 0, 0, 0, 0, 0, 0, 0, 0, 0, 0, 0, 0, 0, 0, 0, 0, 0, 0, 0, 0, 0, 0, 0, 0, 0, 0, 0, 0, 0, 0, 0, 0, 0, 91, 0, 0, 0, 0, 0, 0, 94, 0, 0, 0, 0, 0, 0, 0, 0, 0, 0, 0, 0, 0, 0, 0, 0, 0, 0, 0, 0, 0, 0, 0, 0, 0, 0, 0, 0, 0, 0, 0, 0, 0, 0, 0, 0, 0, 0, 0, 0, 0, 0, 0, 0, 0, 0, 0, 0, 0, 0, 0, 0, 0, 0, 0, 0, 91, 0, 0, 0, 0, 0, 0, 0, 0, 0, 0, 0, 0, 0, 0, 0, 0, 0, 0, 0, 0, 0, 0, 0, 0, 0, 0, 0, 0, 0, 0, 0, 0, 0, 0, 0, 0, 0, 0, 0, 0, 0, 0, 0, 0, 0, 0, 0, 0, 0, 0, 0, 0, 0, 0, 0, 0, 0, 0, 94, 0, 0, 0, 0, 0, 0, 0, 0, 0, 0, 0, 0, 0, 0, 0, 0, 0, 0, 0, 0, 0, 0, 0, 0, 0, 0, 0, 0, 0, 0, 0, 0, 0, 0, 0, 0, 0, 0, 0, 0, 0, 0, 0, 0, 0, 0, 0, 0, 0, 0, 0, 0, 0, 0, 0, 0, 0, 0, 0, 0, 0, 0, 0, 0, 0, 0, 0, 0, 0, 0, 0, 0, 0, 0, 0, 0, 0, 0, 0, 0, 0, 0, 0, 0, 0, 0, 0, 0, 0, 0, 0, 0, 0, 0, 0, 0, 0, 0, 0, 0, 0, 0]
,"height":22,"id":3,"name":"ramassables","opacity":1,"type":"tilelayer","visible":true,"width":22,"x":0,"y":0},{"data":
[0, 0, 0, 0, 0, 0, 0, 0, 0, 0, 0, 0, 0, 0, 0, 0, 0, 0, 0, 0, 0, 0, 0, 0, 0, 0, 0, 0, 0, 0, 0, 0, 0, 0, 0, 0, 0, 0, 0, 0, 0, 0, 0, 0, 0, 0, 0, 0, 0, 0, 0, 0, 0, 0, 0, 0, 0, 0, 0, 0, 0, 0, 0, 0, 0, 0, 0, 0, 0, 0, 0, 0, 0, 0, 0, 0, 0, 0, 0, 0, 0, 0, 0, 0, 0, 0, 0, 0, 0, 0, 0, 0, 0, 0, 0, 0, 0, 0, 0, 131, 0, 0, 0, 0, 0, 0, 0, 0, 0, 0, 0, 0, 0, 0, 0, 0, 0, 0, 0, 0, 0, 0, 0, 0, 0, 0, 0, 0, 0, 0, 0, 0, 0, 0, 0, 0, 0, 0, 0, 0, 0, 0, 0, 0, 0, 0, 0, 0, 0, 0, 0, 0, 0, 0, 0, 0, 0, 0, 0, 0, 0, 0, 0, 0, 0, 0, 0, 0, 0, 0, 0, 0, 0, 0, 0, 0, 0, 0, 0, 0, 0, 0, 0, 0, 0, 0, 0, 0, 0, 0, 0, 0, 0, 0, 0, 0, 0, 0, 0, 0, 0, 0, 0, 0, 0, 0, 0, 0, 0, 0, 0, 0, 0, 0, 0, 0, 0, 0, 0, 0, 0, 0, 0, 0, 0, 0, 0, 0, 0, 0, 0, 0, 0, 0, 0, 0, 0, 0, 0, 0, 0, 0, 0, 0, 0, 0, 0, 0, 0, 0, 0, 0, 0, 0, 0, 0, 0, 0, 0, 0, 0, 0, 0, 0, 0, 0, 0, 0, 0, 0, 0, 0, 0, 0, 0, 0, 0, 0, 0, 0, 0, 0, 0, 0, 0, 0, 0, 0, 0, 0, 0, 0, 0, 0, 0, 0, 0, 0, 0, 0, 0, 0, 0, 0, 0, 0, 0, 0, 0, 0, 0, 0, 0, 0, 0, 0, 0, 0, 0, 0, 0, 0, 0, 0, 0, 0, 0, 0, 0, 0, 0, 0, 0, 0, 0, 0, 0, 0, 0, 0, 0, 199, 0, 0, 0, 0, 0, 0, 0, 0, 0, 0, 0, 0, 0, 0, 0, 0, 0, 0, 0, 0, 0, 0, 0, 0, 0, 0, 0, 0, 0, 0, 0, 0, 0, 0, 0, 0, 0, 0, 0, 0, 0, 0, 0, 0, 0, 0, 0, 0, 0, 0, 0, 0, 0, 0, 0, 0, 0, 0, 0, 0, 0, 0, 0, 0, 0, 0, 0, 0, 0, 0, 0, 0, 0, 0, 0, 0, 0, 0, 0, 0, 0, 0, 0, 0, 0, 0, 0, 0, 131, 0, 0, 0, 0, 0, 0, 0, 0, 0, 0, 0, 0, 0, 0, 0, 0, 0, 0, 0, 0, 0, 0, 0, 0, 0, 0, 0, 0, 0, 0, 0, 0, 0, 0, 0, 0, 0, 0, 0, 0, 0, 0, 0, 0, 0, 0, 0, 0, 0, 0, 0, 199, 0]
,"height":22,"id":4,"name":"joueur","opacity":1,"type":"tilelayer","visible":true,"width":22,"x":0,"y":0}
],"nextlayerid":5,"nextobjectid":1,"orientation":"orthogonal","renderorder":"right-down","tiledversion":"1.4.1","tileheight":32,"tilesets":[{"columns":16,"firstgid":1,"image":"\/SpriteSheet-32x32\/tiny_complete.bmp","imageheight":832,"imagewidth":512,"margin":0,"name":"tiny_complete","spacing":0,"tilecount":416,"tileheight":32,"tilewidth":32}],"tilewidth":32,"type":"map","version":1.4,"width":22}
